# Fdb version 3
["pdflatex"] 1538443254 "epilogue.tex" "epilogue.pdf" "epilogue" 1538443254
  "/usr/local/texlive/2018/texmf-dist/fonts/map/fontname/texfonts.map" 1521748537 3332 103109f5612ad95229751940c61aada0 ""
  "/usr/local/texlive/2018/texmf-dist/fonts/tfm/public/lm/rm-lmr10.tfm" 1521748660 11868 4f81e9b6033c032bdaf9884f4d7ef412 ""
  "/usr/local/texlive/2018/texmf-dist/tex/latex/lm/ot1lmr.fd" 1521749212 1880 bae7b659316f7344a86218ad38b01d91 ""
  "/usr/local/texlive/2018/texmf-dist/web2c/texmf.cnf" 1521749239 33344 88ab9a5bd52990cec8912a3cf750de77 ""
  "/usr/local/texlive/2018/texmf-var/web2c/xetex/xelatex.fmt" 1521750355 3705419 628b2229b70a3ccec9250dce440bb99a ""
  "/usr/local/texlive/2018/texmf.cnf" 1521750323 455 5b996dcaa0eb4ef14a83b026bc0a008c ""
  "epilogue.aux" 1538443216 8 a94a2480d3289e625eea47cd1b285758 ""
  "epilogue.tex" 1538443215 2557 db527f3959f898bc11c91625313da379 ""
  (generated)
  "epilogue.log"
  "epilogue.pdf"
