PWD /home/cstevens/doc/disc_digest_vol_2
INPUT /usr/local/texlive/2018/texmf.cnf
INPUT /usr/local/texlive/2018/texmf-dist/web2c/texmf.cnf
INPUT /usr/local/texlive/2018/texmf-var/web2c/xetex/xelatex.fmt
INPUT header.tex
OUTPUT header.log
INPUT /usr/local/texlive/2018/texmf-dist/tex/latex/setspace/setspace.sty
INPUT /usr/local/texlive/2018/texmf-dist/tex/latex/setspace/setspace.sty
INPUT /usr/local/texlive/2018/texmf-dist/tex/latex/memoir/memoir.cls
INPUT /usr/local/texlive/2018/texmf-dist/tex/latex/memoir/memoir.cls
INPUT /usr/local/texlive/2018/texmf-dist/tex/generic/oberdiek/ifpdf.sty
INPUT /usr/local/texlive/2018/texmf-dist/tex/generic/oberdiek/ifpdf.sty
INPUT /usr/local/texlive/2018/texmf-dist/tex/generic/oberdiek/ifpdf.sty
INPUT /usr/local/texlive/2018/texmf-dist/tex/latex/ifetex/ifetex.sty
INPUT /usr/local/texlive/2018/texmf-dist/tex/latex/ifetex/ifetex.sty
INPUT /usr/local/texlive/2018/texmf-dist/tex/latex/ifetex/ifetex.sty
INPUT /usr/local/texlive/2018/texmf-dist/tex/plain/ifetex/ifetex.tex
INPUT /usr/local/texlive/2018/texmf-dist/tex/generic/ifxetex/ifxetex.sty
INPUT /usr/local/texlive/2018/texmf-dist/tex/generic/ifxetex/ifxetex.sty
INPUT /usr/local/texlive/2018/texmf-dist/tex/generic/ifxetex/ifxetex.sty
INPUT /usr/local/texlive/2018/texmf-dist/tex/generic/oberdiek/ifluatex.sty
INPUT /usr/local/texlive/2018/texmf-dist/tex/generic/oberdiek/ifluatex.sty
INPUT /usr/local/texlive/2018/texmf-dist/tex/generic/oberdiek/ifluatex.sty
INPUT /usr/local/texlive/2018/texmf-dist/tex/latex/memoir/mem10.clo
INPUT /usr/local/texlive/2018/texmf-dist/tex/latex/memoir/mem10.clo
INPUT /usr/local/texlive/2018/texmf-dist/tex/latex/memoir/mempatch.sty
INPUT /usr/local/texlive/2018/texmf-dist/tex/latex/memoir/mempatch.sty
INPUT /usr/local/texlive/2018/texmf-dist/tex/latex/memoir/mempatch.sty
OUTPUT header.ent
INPUT /usr/local/texlive/2018/texmf-dist/tex/latex/graphics/graphicx.sty
INPUT /usr/local/texlive/2018/texmf-dist/tex/latex/graphics/graphicx.sty
INPUT /usr/local/texlive/2018/texmf-dist/tex/latex/graphics/keyval.sty
INPUT /usr/local/texlive/2018/texmf-dist/tex/latex/graphics/keyval.sty
INPUT /usr/local/texlive/2018/texmf-dist/tex/latex/graphics/graphics.sty
INPUT /usr/local/texlive/2018/texmf-dist/tex/latex/graphics/graphics.sty
INPUT /usr/local/texlive/2018/texmf-dist/tex/latex/graphics/trig.sty
INPUT /usr/local/texlive/2018/texmf-dist/tex/latex/graphics/trig.sty
INPUT /usr/local/texlive/2018/texmf-dist/tex/latex/graphics-cfg/graphics.cfg
INPUT /usr/local/texlive/2018/texmf-dist/tex/latex/graphics-cfg/graphics.cfg
INPUT /usr/local/texlive/2018/texmf-dist/tex/latex/graphics-def/xetex.def
INPUT /usr/local/texlive/2018/texmf-dist/tex/latex/graphics-def/xetex.def
INPUT /usr/local/texlive/2018/texmf-dist/tex/latex/wrapfig/wrapfig.sty
INPUT /usr/local/texlive/2018/texmf-dist/tex/latex/wrapfig/wrapfig.sty
INPUT /usr/local/texlive/2018/texmf-dist/tex/latex/caption/caption.sty
INPUT /usr/local/texlive/2018/texmf-dist/tex/latex/caption/caption.sty
INPUT /usr/local/texlive/2018/texmf-dist/tex/latex/caption/caption3.sty
INPUT /usr/local/texlive/2018/texmf-dist/tex/latex/caption/caption3.sty
INPUT /usr/local/texlive/2018/texmf-dist/tex/latex/microtype/microtype.sty
INPUT /usr/local/texlive/2018/texmf-dist/tex/latex/microtype/microtype.sty
INPUT /usr/local/texlive/2018/texmf-dist/tex/latex/microtype/microtype-xetex.def
INPUT /usr/local/texlive/2018/texmf-dist/tex/latex/microtype/microtype-xetex.def
INPUT /usr/local/texlive/2018/texmf-dist/tex/latex/microtype/microtype.cfg
INPUT /usr/local/texlive/2018/texmf-dist/tex/latex/microtype/microtype.cfg
INPUT /usr/local/texlive/2018/texmf-dist/tex/latex/microtype/microtype.cfg
INPUT /usr/local/texlive/2018/texmf-dist/tex/latex/fontspec/fontspec.sty
INPUT /usr/local/texlive/2018/texmf-dist/tex/latex/fontspec/fontspec.sty
INPUT /usr/local/texlive/2018/texmf-dist/tex/latex/l3packages/xparse/xparse.sty
INPUT /usr/local/texlive/2018/texmf-dist/tex/latex/l3packages/xparse/xparse.sty
INPUT /usr/local/texlive/2018/texmf-dist/tex/latex/l3kernel/expl3.sty
INPUT /usr/local/texlive/2018/texmf-dist/tex/latex/l3kernel/expl3.sty
INPUT /usr/local/texlive/2018/texmf-dist/tex/latex/l3kernel/expl3-code.tex
INPUT /usr/local/texlive/2018/texmf-dist/tex/latex/l3kernel/expl3-code.tex
INPUT /usr/local/texlive/2018/texmf-dist/tex/generic/unicode-data/UnicodeData.txt
INPUT /usr/local/texlive/2018/texmf-dist/tex/generic/unicode-data/CaseFolding.txt
INPUT /usr/local/texlive/2018/texmf-dist/tex/generic/unicode-data/SpecialCasing.txt
INPUT /usr/local/texlive/2018/texmf-dist/fonts/map/fontname/texfonts.map
INPUT /usr/local/texlive/2018/texmf-dist/fonts/tfm/public/cm/cmr10.tfm
INPUT /usr/local/texlive/2018/texmf-dist/fonts/tfm/public/cm/cmr10.tfm
INPUT /usr/local/texlive/2018/texmf-dist/fonts/tfm/public/cm/cmr10.tfm
INPUT /usr/local/texlive/2018/texmf-dist/fonts/tfm/public/cm/cmr10.tfm
INPUT /usr/local/texlive/2018/texmf-dist/fonts/tfm/public/cm/cmr10.tfm
INPUT /usr/local/texlive/2018/texmf-dist/fonts/tfm/public/cm/cmr10.tfm
INPUT /usr/local/texlive/2018/texmf-dist/fonts/tfm/public/cm/cmr10.tfm
INPUT /usr/local/texlive/2018/texmf-dist/fonts/tfm/public/cm/cmr10.tfm
INPUT /usr/local/texlive/2018/texmf-dist/tex/latex/l3kernel/l3xdvipdfmx.def
INPUT /usr/local/texlive/2018/texmf-dist/tex/latex/l3kernel/l3xdvipdfmx.def
INPUT /usr/local/texlive/2018/texmf-dist/tex/latex/fontspec/fontspec-xetex.sty
INPUT /usr/local/texlive/2018/texmf-dist/tex/latex/fontspec/fontspec-xetex.sty
INPUT /usr/local/texlive/2018/texmf-dist/tex/latex/base/tuenc.def
INPUT /usr/local/texlive/2018/texmf-dist/tex/latex/base/fontenc.sty
INPUT /usr/local/texlive/2018/texmf-dist/tex/latex/base/fontenc.sty
INPUT /usr/local/texlive/2018/texmf-dist/tex/latex/base/tuenc.def
INPUT /usr/local/texlive/2018/texmf-dist/tex/latex/base/tuenc.def
INPUT /usr/local/texlive/2018/texmf-dist/tex/latex/fontspec/fontspec.cfg
INPUT /usr/local/texlive/2018/texmf-dist/tex/latex/fontspec/fontspec.cfg
INPUT /usr/local/texlive/2018/texmf-dist/tex/xelatex/xunicode/xunicode.sty
INPUT /usr/local/texlive/2018/texmf-dist/tex/xelatex/xunicode/xunicode.sty
INPUT /usr/local/texlive/2018/texmf-dist/tex/latex/tipa/t3enc.def
INPUT /usr/local/texlive/2018/texmf-dist/tex/latex/polyglossia/polyglossia.sty
INPUT /usr/local/texlive/2018/texmf-dist/tex/latex/polyglossia/polyglossia.sty
INPUT /usr/local/texlive/2018/texmf-dist/tex/latex/etoolbox/etoolbox.sty
INPUT /usr/local/texlive/2018/texmf-dist/tex/latex/etoolbox/etoolbox.sty
INPUT /usr/local/texlive/2018/texmf-dist/tex/latex/makecmds/makecmds.sty
INPUT /usr/local/texlive/2018/texmf-dist/tex/latex/makecmds/makecmds.sty
INPUT /usr/local/texlive/2018/texmf-dist/tex/latex/xkeyval/xkeyval.sty
INPUT /usr/local/texlive/2018/texmf-dist/tex/latex/xkeyval/xkeyval.sty
INPUT /usr/local/texlive/2018/texmf-dist/tex/generic/xkeyval/xkeyval.tex
INPUT /usr/local/texlive/2018/texmf-dist/tex/generic/xkeyval/xkvutils.tex
INPUT /usr/local/texlive/2018/texmf-dist/tex/latex/newunicodechar/newunicodechar.sty
INPUT /usr/local/texlive/2018/texmf-dist/tex/latex/newunicodechar/newunicodechar.sty
INPUT /usr/local/texlive/2018/texmf-dist/tex/latex/tools/multicol.sty
INPUT /usr/local/texlive/2018/texmf-dist/tex/latex/tools/multicol.sty
INPUT /usr/local/texlive/2018/texmf-dist/tex/latex/marginnote/marginnote.sty
INPUT /usr/local/texlive/2018/texmf-dist/tex/latex/marginnote/marginnote.sty
INPUT /usr/local/texlive/2018/texmf-dist/tex/latex/lettrine/lettrine.sty
INPUT /usr/local/texlive/2018/texmf-dist/tex/latex/lettrine/lettrine.sty
INPUT /usr/local/texlive/2018/texmf-dist/tex/latex/lettrine/lettrine.cfg
INPUT /usr/local/texlive/2018/texmf-dist/tex/latex/lettrine/lettrine.cfg
INPUT /usr/local/texlive/2018/texmf-dist/tex/latex/moresize/moresize.sty
INPUT /usr/local/texlive/2018/texmf-dist/tex/latex/moresize/moresize.sty
INPUT /usr/local/texlive/2018/texmf-dist/tex/latex/xcolor/xcolor.sty
INPUT /usr/local/texlive/2018/texmf-dist/tex/latex/xcolor/xcolor.sty
INPUT /usr/local/texlive/2018/texmf-dist/tex/latex/graphics-cfg/color.cfg
INPUT /usr/local/texlive/2018/texmf-dist/tex/latex/graphics-cfg/color.cfg
INPUT /usr/local/texlive/2018/texmf-dist/tex/latex/colortbl/colortbl.sty
INPUT /usr/local/texlive/2018/texmf-dist/tex/latex/colortbl/colortbl.sty
INPUT /usr/local/texlive/2018/texmf-dist/tex/latex/graphics/dvipsnam.def
INPUT /usr/local/texlive/2018/texmf-dist/tex/latex/graphics/dvipsnam.def
INPUT /usr/local/texlive/2018/texmf-dist/tex/latex/xcolor/svgnam.def
INPUT /usr/local/texlive/2018/texmf-dist/tex/latex/xcolor/svgnam.def
INPUT /usr/local/texlive/2018/texmf-dist/tex/latex/background/background.sty
INPUT /usr/local/texlive/2018/texmf-dist/tex/latex/background/background.sty
INPUT /usr/local/texlive/2018/texmf-dist/tex/latex/pgf/frontendlayer/tikz.sty
INPUT /usr/local/texlive/2018/texmf-dist/tex/latex/pgf/frontendlayer/tikz.sty
INPUT /usr/local/texlive/2018/texmf-dist/tex/latex/pgf/basiclayer/pgf.sty
INPUT /usr/local/texlive/2018/texmf-dist/tex/latex/pgf/basiclayer/pgf.sty
INPUT /usr/local/texlive/2018/texmf-dist/tex/latex/pgf/utilities/pgfrcs.sty
INPUT /usr/local/texlive/2018/texmf-dist/tex/latex/pgf/utilities/pgfrcs.sty
INPUT /usr/local/texlive/2018/texmf-dist/tex/generic/pgf/utilities/pgfutil-common.tex
INPUT /usr/local/texlive/2018/texmf-dist/tex/generic/pgf/utilities/pgfutil-common-lists.tex
INPUT /usr/local/texlive/2018/texmf-dist/tex/generic/pgf/utilities/pgfutil-latex.def
INPUT /usr/local/texlive/2018/texmf-dist/tex/latex/ms/everyshi.sty
INPUT /usr/local/texlive/2018/texmf-dist/tex/latex/ms/everyshi.sty
INPUT /usr/local/texlive/2018/texmf-dist/tex/generic/pgf/utilities/pgfrcs.code.tex
INPUT /usr/local/texlive/2018/texmf-dist/tex/generic/pgf/utilities/pgfrcs.code.tex
INPUT /usr/local/texlive/2018/texmf-dist/tex/latex/pgf/basiclayer/pgfcore.sty
INPUT /usr/local/texlive/2018/texmf-dist/tex/latex/pgf/basiclayer/pgfcore.sty
INPUT /usr/local/texlive/2018/texmf-dist/tex/latex/pgf/systemlayer/pgfsys.sty
INPUT /usr/local/texlive/2018/texmf-dist/tex/latex/pgf/systemlayer/pgfsys.sty
INPUT /usr/local/texlive/2018/texmf-dist/tex/generic/pgf/systemlayer/pgfsys.code.tex
INPUT /usr/local/texlive/2018/texmf-dist/tex/generic/pgf/systemlayer/pgfsys.code.tex
INPUT /usr/local/texlive/2018/texmf-dist/tex/generic/pgf/utilities/pgfkeys.code.tex
INPUT /usr/local/texlive/2018/texmf-dist/tex/generic/pgf/utilities/pgfkeysfiltered.code.tex
INPUT /usr/local/texlive/2018/texmf-dist/tex/generic/pgf/systemlayer/pgf.cfg
INPUT /usr/local/texlive/2018/texmf-dist/tex/generic/pgf/systemlayer/pgfsys-xetex.def
INPUT /usr/local/texlive/2018/texmf-dist/tex/generic/pgf/systemlayer/pgfsys-xetex.def
INPUT /usr/local/texlive/2018/texmf-dist/tex/generic/pgf/systemlayer/pgfsys-dvipdfmx.def
INPUT /usr/local/texlive/2018/texmf-dist/tex/generic/pgf/systemlayer/pgfsys-common-pdf.def
INPUT /usr/local/texlive/2018/texmf-dist/tex/generic/pgf/systemlayer/pgfsyssoftpath.code.tex
INPUT /usr/local/texlive/2018/texmf-dist/tex/generic/pgf/systemlayer/pgfsyssoftpath.code.tex
INPUT /usr/local/texlive/2018/texmf-dist/tex/generic/pgf/systemlayer/pgfsysprotocol.code.tex
INPUT /usr/local/texlive/2018/texmf-dist/tex/generic/pgf/systemlayer/pgfsysprotocol.code.tex
INPUT /usr/local/texlive/2018/texmf-dist/tex/generic/pgf/basiclayer/pgfcore.code.tex
INPUT /usr/local/texlive/2018/texmf-dist/tex/generic/pgf/basiclayer/pgfcore.code.tex
INPUT /usr/local/texlive/2018/texmf-dist/tex/generic/pgf/math/pgfmath.code.tex
INPUT /usr/local/texlive/2018/texmf-dist/tex/generic/pgf/math/pgfmathcalc.code.tex
INPUT /usr/local/texlive/2018/texmf-dist/tex/generic/pgf/math/pgfmathutil.code.tex
INPUT /usr/local/texlive/2018/texmf-dist/tex/generic/pgf/math/pgfmathparser.code.tex
INPUT /usr/local/texlive/2018/texmf-dist/tex/generic/pgf/math/pgfmathfunctions.code.tex
INPUT /usr/local/texlive/2018/texmf-dist/tex/generic/pgf/math/pgfmathfunctions.basic.code.tex
INPUT /usr/local/texlive/2018/texmf-dist/tex/generic/pgf/math/pgfmathfunctions.trigonometric.code.tex
INPUT /usr/local/texlive/2018/texmf-dist/tex/generic/pgf/math/pgfmathfunctions.random.code.tex
INPUT /usr/local/texlive/2018/texmf-dist/tex/generic/pgf/math/pgfmathfunctions.comparison.code.tex
INPUT /usr/local/texlive/2018/texmf-dist/tex/generic/pgf/math/pgfmathfunctions.base.code.tex
INPUT /usr/local/texlive/2018/texmf-dist/tex/generic/pgf/math/pgfmathfunctions.round.code.tex
INPUT /usr/local/texlive/2018/texmf-dist/tex/generic/pgf/math/pgfmathfunctions.misc.code.tex
INPUT /usr/local/texlive/2018/texmf-dist/tex/generic/pgf/math/pgfmathfunctions.integerarithmetics.code.tex
INPUT /usr/local/texlive/2018/texmf-dist/tex/generic/pgf/math/pgfmathfloat.code.tex
INPUT /usr/local/texlive/2018/texmf-dist/tex/generic/pgf/basiclayer/pgfcorepoints.code.tex
INPUT /usr/local/texlive/2018/texmf-dist/tex/generic/pgf/basiclayer/pgfcorepathconstruct.code.tex
INPUT /usr/local/texlive/2018/texmf-dist/tex/generic/pgf/basiclayer/pgfcorepathusage.code.tex
INPUT /usr/local/texlive/2018/texmf-dist/tex/generic/pgf/basiclayer/pgfcorescopes.code.tex
INPUT /usr/local/texlive/2018/texmf-dist/tex/generic/pgf/basiclayer/pgfcoregraphicstate.code.tex
INPUT /usr/local/texlive/2018/texmf-dist/tex/generic/pgf/basiclayer/pgfcoretransformations.code.tex
INPUT /usr/local/texlive/2018/texmf-dist/tex/generic/pgf/basiclayer/pgfcorequick.code.tex
INPUT /usr/local/texlive/2018/texmf-dist/tex/generic/pgf/basiclayer/pgfcoreobjects.code.tex
INPUT /usr/local/texlive/2018/texmf-dist/tex/generic/pgf/basiclayer/pgfcorepathprocessing.code.tex
INPUT /usr/local/texlive/2018/texmf-dist/tex/generic/pgf/basiclayer/pgfcorearrows.code.tex
INPUT /usr/local/texlive/2018/texmf-dist/tex/generic/pgf/basiclayer/pgfcoreshade.code.tex
INPUT /usr/local/texlive/2018/texmf-dist/tex/generic/pgf/basiclayer/pgfcoreimage.code.tex
INPUT /usr/local/texlive/2018/texmf-dist/tex/generic/pgf/basiclayer/pgfcoreexternal.code.tex
INPUT /usr/local/texlive/2018/texmf-dist/tex/generic/pgf/basiclayer/pgfcorelayers.code.tex
INPUT /usr/local/texlive/2018/texmf-dist/tex/generic/pgf/basiclayer/pgfcoretransparency.code.tex
INPUT /usr/local/texlive/2018/texmf-dist/tex/generic/pgf/basiclayer/pgfcorepatterns.code.tex
INPUT /usr/local/texlive/2018/texmf-dist/tex/generic/pgf/modules/pgfmoduleshapes.code.tex
INPUT /usr/local/texlive/2018/texmf-dist/tex/generic/pgf/modules/pgfmoduleplot.code.tex
INPUT /usr/local/texlive/2018/texmf-dist/tex/latex/pgf/compatibility/pgfcomp-version-0-65.sty
INPUT /usr/local/texlive/2018/texmf-dist/tex/latex/pgf/compatibility/pgfcomp-version-0-65.sty
INPUT /usr/local/texlive/2018/texmf-dist/tex/latex/pgf/compatibility/pgfcomp-version-1-18.sty
INPUT /usr/local/texlive/2018/texmf-dist/tex/latex/pgf/compatibility/pgfcomp-version-1-18.sty
INPUT /usr/local/texlive/2018/texmf-dist/tex/latex/pgf/utilities/pgffor.sty
INPUT /usr/local/texlive/2018/texmf-dist/tex/latex/pgf/utilities/pgffor.sty
INPUT /usr/local/texlive/2018/texmf-dist/tex/latex/pgf/utilities/pgfkeys.sty
INPUT /usr/local/texlive/2018/texmf-dist/tex/latex/pgf/utilities/pgfkeys.sty
INPUT /usr/local/texlive/2018/texmf-dist/tex/generic/pgf/utilities/pgfkeys.code.tex
INPUT /usr/local/texlive/2018/texmf-dist/tex/generic/pgf/utilities/pgfkeys.code.tex
INPUT /usr/local/texlive/2018/texmf-dist/tex/latex/pgf/math/pgfmath.sty
INPUT /usr/local/texlive/2018/texmf-dist/tex/latex/pgf/math/pgfmath.sty
INPUT /usr/local/texlive/2018/texmf-dist/tex/generic/pgf/math/pgfmath.code.tex
INPUT /usr/local/texlive/2018/texmf-dist/tex/generic/pgf/math/pgfmath.code.tex
INPUT /usr/local/texlive/2018/texmf-dist/tex/generic/pgf/utilities/pgffor.code.tex
INPUT /usr/local/texlive/2018/texmf-dist/tex/generic/pgf/utilities/pgffor.code.tex
INPUT /usr/local/texlive/2018/texmf-dist/tex/generic/pgf/math/pgfmath.code.tex
INPUT /usr/local/texlive/2018/texmf-dist/tex/generic/pgf/frontendlayer/tikz/tikz.code.tex
INPUT /usr/local/texlive/2018/texmf-dist/tex/generic/pgf/frontendlayer/tikz/tikz.code.tex
INPUT /usr/local/texlive/2018/texmf-dist/tex/generic/pgf/libraries/pgflibraryplothandlers.code.tex
INPUT /usr/local/texlive/2018/texmf-dist/tex/generic/pgf/libraries/pgflibraryplothandlers.code.tex
INPUT /usr/local/texlive/2018/texmf-dist/tex/generic/pgf/modules/pgfmodulematrix.code.tex
INPUT /usr/local/texlive/2018/texmf-dist/tex/generic/pgf/frontendlayer/tikz/libraries/tikzlibrarytopaths.code.tex
INPUT /usr/local/texlive/2018/texmf-dist/tex/generic/pgf/frontendlayer/tikz/libraries/tikzlibrarytopaths.code.tex
INPUT /usr/local/texlive/2018/texmf-dist/tex/latex/everypage/everypage.sty
INPUT /usr/local/texlive/2018/texmf-dist/tex/latex/everypage/everypage.sty
INPUT /usr/local/texlive/2018/texmf-dist/tex/latex/tools/afterpage.sty
INPUT /usr/local/texlive/2018/texmf-dist/tex/latex/tools/afterpage.sty
INPUT /usr/local/texlive/2018/texmf-dist/tex/latex/textpos/textpos.sty
INPUT /usr/local/texlive/2018/texmf-dist/tex/latex/textpos/textpos.sty
INPUT /usr/local/texlive/2018/texmf-dist/tex/latex/graphics/lscape.sty
INPUT /usr/local/texlive/2018/texmf-dist/tex/latex/graphics/lscape.sty
INPUT /usr/local/texlive/2018/texmf-dist/tex/latex/tools/varioref.sty
INPUT /usr/local/texlive/2018/texmf-dist/tex/latex/tools/varioref.sty
INPUT /usr/local/texlive/2018/texmf-dist/tex/latex/pdfpages/pdfpages.sty
INPUT /usr/local/texlive/2018/texmf-dist/tex/latex/pdfpages/pdfpages.sty
INPUT /usr/local/texlive/2018/texmf-dist/tex/latex/base/ifthen.sty
INPUT /usr/local/texlive/2018/texmf-dist/tex/latex/base/ifthen.sty
INPUT /usr/local/texlive/2018/texmf-dist/tex/latex/tools/calc.sty
INPUT /usr/local/texlive/2018/texmf-dist/tex/latex/tools/calc.sty
INPUT /usr/local/texlive/2018/texmf-dist/tex/latex/eso-pic/eso-pic.sty
INPUT /usr/local/texlive/2018/texmf-dist/tex/latex/eso-pic/eso-pic.sty
INPUT /usr/local/texlive/2018/texmf-dist/tex/generic/oberdiek/atbegshi.sty
INPUT /usr/local/texlive/2018/texmf-dist/tex/generic/oberdiek/atbegshi.sty
INPUT /usr/local/texlive/2018/texmf-dist/tex/generic/oberdiek/infwarerr.sty
INPUT /usr/local/texlive/2018/texmf-dist/tex/generic/oberdiek/infwarerr.sty
INPUT /usr/local/texlive/2018/texmf-dist/tex/generic/oberdiek/ltxcmds.sty
INPUT /usr/local/texlive/2018/texmf-dist/tex/generic/oberdiek/ltxcmds.sty
INPUT /usr/local/texlive/2018/texmf-dist/tex/latex/pdfpages/ppxetex.def
INPUT /usr/local/texlive/2018/texmf-dist/tex/latex/pdfpages/ppxetex.def
INPUT /usr/local/texlive/2018/texmf-dist/tex/latex/listings/listings.sty
INPUT /usr/local/texlive/2018/texmf-dist/tex/latex/listings/listings.sty
INPUT /usr/local/texlive/2018/texmf-dist/tex/latex/listings/lstmisc.sty
INPUT /usr/local/texlive/2018/texmf-dist/tex/latex/listings/lstmisc.sty
INPUT /usr/local/texlive/2018/texmf-dist/tex/latex/listings/listings.cfg
INPUT /usr/local/texlive/2018/texmf-dist/tex/latex/listings/listings.cfg
INPUT /usr/local/texlive/2018/texmf-dist/tex/latex/hyperref/hyperref.sty
INPUT /usr/local/texlive/2018/texmf-dist/tex/latex/hyperref/hyperref.sty
INPUT /usr/local/texlive/2018/texmf-dist/tex/generic/oberdiek/hobsub-hyperref.sty
INPUT /usr/local/texlive/2018/texmf-dist/tex/generic/oberdiek/hobsub-hyperref.sty
INPUT /usr/local/texlive/2018/texmf-dist/tex/generic/oberdiek/hobsub-hyperref.sty
INPUT /usr/local/texlive/2018/texmf-dist/tex/generic/oberdiek/hobsub-generic.sty
INPUT /usr/local/texlive/2018/texmf-dist/tex/generic/oberdiek/hobsub-generic.sty
INPUT /usr/local/texlive/2018/texmf-dist/tex/latex/oberdiek/auxhook.sty
INPUT /usr/local/texlive/2018/texmf-dist/tex/latex/oberdiek/auxhook.sty
INPUT /usr/local/texlive/2018/texmf-dist/tex/latex/oberdiek/kvoptions.sty
INPUT /usr/local/texlive/2018/texmf-dist/tex/latex/oberdiek/kvoptions.sty
INPUT /usr/local/texlive/2018/texmf-dist/tex/latex/hyperref/pd1enc.def
INPUT /usr/local/texlive/2018/texmf-dist/tex/latex/hyperref/pd1enc.def
INPUT /usr/local/texlive/2018/texmf-dist/tex/latex/latexconfig/hyperref.cfg
INPUT /usr/local/texlive/2018/texmf-dist/tex/latex/latexconfig/hyperref.cfg
INPUT /usr/local/texlive/2018/texmf-dist/tex/latex/hyperref/puenc.def
INPUT /usr/local/texlive/2018/texmf-dist/tex/latex/hyperref/puenc.def
INPUT /usr/local/texlive/2018/texmf-dist/tex/latex/url/url.sty
INPUT /usr/local/texlive/2018/texmf-dist/tex/latex/url/url.sty
INPUT /usr/local/texlive/2018/texmf-dist/fonts/tfm/adobe/zapfding/pzdr.tfm
INPUT /usr/local/texlive/2018/texmf-dist/tex/latex/memoir/memhfixc.sty
INPUT /usr/local/texlive/2018/texmf-dist/tex/latex/memoir/memhfixc.sty
INPUT /usr/local/texlive/2018/texmf-dist/tex/latex/hyperref/hxetex.def
INPUT /usr/local/texlive/2018/texmf-dist/tex/latex/hyperref/hxetex.def
INPUT /usr/local/texlive/2018/texmf-dist/tex/generic/oberdiek/stringenc.sty
INPUT /usr/local/texlive/2018/texmf-dist/tex/generic/oberdiek/stringenc.sty
INPUT /usr/local/texlive/2018/texmf-dist/tex/latex/oberdiek/rerunfilecheck.sty
INPUT /usr/local/texlive/2018/texmf-dist/tex/latex/oberdiek/rerunfilecheck.sty
INPUT /usr/local/texlive/2018/texmf-dist/tex/latex/oberdiek/attachfile2.sty
INPUT /usr/local/texlive/2018/texmf-dist/tex/latex/oberdiek/attachfile2.sty
INPUT /usr/local/texlive/2018/texmf-dist/tex/latex/oberdiek/atfi-dvipdfmx.def
INPUT /usr/local/texlive/2018/texmf-dist/tex/latex/oberdiek/atfi-dvipdfmx.def
INPUT header.atfi
INPUT header.atfi
OUTPUT header.atfi
INPUT header.aux
INPUT header.aux
OUTPUT header.aux
INPUT /usr/local/texlive/2018/texmf-dist/tex/latex/tipa/t3cmr.fd
INPUT /usr/local/texlive/2018/texmf-dist/tex/latex/tipa/t3cmr.fd
INPUT /usr/local/texlive/2018/texmf-dist/tex/latex/oberdiek/pdflscape.sty
INPUT /usr/local/texlive/2018/texmf-dist/tex/latex/oberdiek/pdflscape.sty
INPUT /usr/local/texlive/2018/texmf-dist/tex/latex/hyperref/nameref.sty
INPUT /usr/local/texlive/2018/texmf-dist/tex/latex/hyperref/nameref.sty
INPUT /usr/local/texlive/2018/texmf-dist/tex/generic/oberdiek/gettitlestring.sty
INPUT /usr/local/texlive/2018/texmf-dist/tex/generic/oberdiek/gettitlestring.sty
INPUT header.out
INPUT header.out
INPUT header.out
INPUT header.out
OUTPUT header.out
INPUT ./media/images/cover.png
INPUT header.toc
INPUT header.toc
INPUT /usr/local/texlive/2018/texmf-dist/tex/latex/microtype/mt-cmr.cfg
INPUT /usr/local/texlive/2018/texmf-dist/tex/latex/microtype/mt-cmr.cfg
INPUT ./media/images/cover_splash.jpg
INPUT ./media/images/editorial_cover.jpg
INPUT ./editorial.tex
INPUT ./editorial.tex
INPUT ./media/images/chess.jpg
INPUT ./media/images/gary.jpg
INPUT header.ent
INPUT ./media/images/spock.jpg
INPUT ./media/images/greek_theatre.jpg
INPUT media/images/dating_ad.pdf
INPUT media/images/dating_ad.pdf
INPUT media/images/dating_ad.pdf
INPUT media/images/dating_ad.pdf
INPUT media/images/dating_ad.pdf
INPUT media/images/dating_ad.pdf
INPUT media/images/dating_ad.pdf
INPUT media/images/dating_ad.pdf
INPUT ./media/images/nltk_cover.jpg
INPUT ./nltk.tex
INPUT ./nltk.tex
INPUT ./media/images/world_map.jpg
INPUT /usr/local/texlive/2018/texmf-dist/fonts/tfm/public/cm/cmmi6.tfm
INPUT /usr/local/texlive/2018/texmf-dist/fonts/tfm/public/cm/cmsy6.tfm
INPUT /usr/local/texlive/2018/texmf-dist/fonts/tfm/public/cm/cmr6.tfm
INPUT media/images/sailor_ad.pdf
INPUT media/images/sailor_ad.pdf
INPUT media/images/sailor_ad.pdf
INPUT media/images/sailor_ad.pdf
INPUT media/images/sailor_ad.pdf
INPUT media/images/sailor_ad.pdf
INPUT media/images/sailor_ad.pdf
INPUT media/images/sailor_ad.pdf
INPUT media/images/nltk_data.png
INPUT media/images/python_prompt.png
INPUT media/images/nltk_book.png
INPUT /usr/local/texlive/2018/texmf-dist/tex/latex/listings/lstlang1.sty
INPUT /usr/local/texlive/2018/texmf-dist/tex/latex/listings/lstlang1.sty
INPUT media/images/python_concord.png
INPUT ./media/images/topic_cover.jpg
INPUT ./topic.tex
INPUT ./topic.tex
INPUT ./media/images/world_iguana.jpg
INPUT media/images/pepper.pdf
INPUT media/images/pepper.pdf
INPUT media/images/pepper.pdf
INPUT media/images/pepper.pdf
INPUT media/images/pepper.pdf
INPUT media/images/pepper.pdf
INPUT media/images/pepper.pdf
INPUT media/images/pepper.pdf
INPUT header.ent
INPUT ./media/images/graph.jpg
INPUT media/images/framework.jpg
INPUT media/images/rtorrent.jpg
INPUT media/images/gensim_graph.jpg
INPUT ./media/images/type.jpg
INPUT ./epilogue.tex
INPUT ./epilogue.tex
INPUT ./media/images/boat.jpg
INPUT header.ent
INPUT header.ent
INPUT header.ent
INPUT media/images/relationships.dot
INPUT media/images/relationships.dot
INPUT media/images/relationships.dot
OUTPUT header.toc
INPUT header.aux
